{
  "project_info": {
    "project_id": "puzzler-7a3fb",
    "project_number": "392900656484",
    "name": "puzzler"
  },
  "client": [
    {
      "client_info": {
        "mobilesdk_app_id": "1:392900656484:android:c2d69aa92d12a345",
        "client_id": "android:com.feb312016.puzzler",
        "client_type": 1,
        "android_client_info": {
          "package_name": "com.feb312016.puzzler"
        }
      },
      "oauth_client": [],
      "api_key": [],
      "services": {
        "analytics_service": {
          "status": 2,
          "analytics_property": {
            "tracking_id": "UA-49487817-10"
          }
        },
        "cloud_messaging_service": {
          "status": 1,
          "apns_config": []
        },
        "appinvite_service": {
          "status": 1,
          "other_platform_oauth_client": []
        },
        "google_signin_service": {
          "status": 1
        },
        "ads_service": {
          "status": 1
        }
      }
    }
  ],
  "client_info": [],
  "ARTIFACT_VERSION": "1"
}